{
	"development": {
		"username": "root",

		"password": "0939414836",

		"database": "onlineauction",

		"host": "127.0.0.1",

		"dialect": "mysql"
	},

	"test": {
		"username": "",

		"password": null,

		"database": "",

		"host": "",

		"dialect": "mysql"
	},

	"production": {
		"username": "",

		"password": null,

		"database": "",

		"host": "127.0.0.1",

		"dialect": "mysql"
	}
}
